{
    "$schema": "https://raw.githubusercontent.com/microsoft/vcpkg/master/scripts/vcpkg.schema.json",
    "name": "fully-dynamic-game-engine",
    "version-semver": "0.3.0",
    "port-version": 0,
    "description": "Static library of supplemental utility features for SKSE64/CommonLibSSE plugin developers.",
    "homepage": "https://www.skyrimng.com",
    "license": "Apache-2.0",
    "supports": "windows & x64",
    "dependencies": [
        {
            "name": "vcpkg-cmake-config",
            "host": true
        }
    ],
    "features": {
        "trueflame": {
            "description": "Builds the Trueflame library for high level development on raw SKSE/CommonLibSSE.",
            "dependencies": [
                "articuno",
                "commonlibsse-ng",
                "efsw",
                "gluino",
                "hoshi",
                "metrohash",
                "spdlog",
                "srell"
            ]
        },
        "trueflame-tests": {
            "description": "Build tests for Trueflame.",
            "dependencies": [
                {
                    "name": "fully-dynamic-game-engine",
                    "default-features": false,
                    "features": [
                        "trueflame"
                    ]
                },
                "gtest"
            ]
        },
        "black-book": {
            "description": "Builds the Black Book components (Fully Dynamic Game Engine.dll).",
            "dependencies": [
                {
                    "name": "boost-iostreams",
                    "default-features": false,
                    "features": [
                        "zlib",
                        "zstd"
                    ]
                },
                "boost-stacktrace",
                {
                    "host": true,
                    "name": "commonlibsse-ng"
                },
                "cpp-peglib",
                {
                    "name": "fully-dynamic-game-engine",
                    "default-features": false,
                    "features": [
                        "trueflame"
                    ]
                },
                "inja",
                "lua",
                "openvr",
                "pcg",
                "pybind11",
                "qtdeclarative",
                "qtimageformats",
                "qtshadertools",
                "qtmultimedia",
                "qtsvg",
                "tsl-hat-trie",
                "tsl-ordered-map"
            ]
        },
        "black-book-scripts": {
            "description": "Provides copies of Black Book's Papyrus script sources, for developing on top of Black Book."
        },
        "black-book-scripts-dev": {
            "description": "Sets up an environment for internal development of Black Book's Papyrus scripts.",
            "dependencies": [
                "bethesda-skyrim-scripts",
                {
                    "name": "fully-dynamic-game-engine",
                    "default-features": false,
                    "features": [
                        "black-book"
                    ]
                },
                {
                    "name": "skse",
                    "default-features": false,
                    "features": [
                        "scripts"
                    ]
                }
            ]
        },
        "black-book-tests": {
            "description": "Build tests for Black Book",
            "dependencies": [
                {
                    "name": "fully-dynamic-game-engine",
                    "default-features": false,
                    "features": [
                        "black-book"
                    ]
                },
                "gtest"
            ]
        },
        "hopesfire": {
            "description": "Builds the Hopesfire library for high level development on top of Fully Dynamic Game Engine.",
            "dependencies": [
                {
                    "name": "fully-dynamic-game-engine",
                    "default-features": false,
                    "features": [
                        "black-book"
                    ]
                }
            ]
        },
        "hopesfire-tests": {
            "description": "Build tests for Hopesfire.",
            "dependencies": [
                {
                    "name": "fully-dynamic-game-engine",
                    "default-features": false,
                    "features": [
                        "hopesfire"
                    ]
                },
                "gtest"
            ]
        }
    },
    "default-features": [
        "trueflame-tests",
        "black-book-tests",
        "black-book-scripts-dev",
        "hopesfire",
        "hopesfire-tests"
    ]
}
